Project 4 - Spam Email
…
receive

Some of these words may be related to the email but some make sense. Spam emails try to get users to click and give money.

term_count <- combo_tidy_dtm %>%
  group_by(term) %>%
  select(term,count,spam) %>%
  filter(spam == 1) %>%
  summarize(term_count = sum(count))

term_count %>%
  arrange(-term_count,term)

## # A tibble: 14,014 x 2
##    term      term_count
##    <chr>          <dbl>
##  1 =               4317
##  2 esmtp           3138
##  3 email           1827
##  4 localhost       1745
##  5 mv              1398
##  6 smtp            1283
##  7 free            1195
##  8 postfix          966
##  9 list             875
## 10 na               861
## #  with 14,004 more rows
…
